…
``` r
private_data
```

    ## # A tibble: 56 × 5
    ##    State_Nm rel_richness rel_carbon  area_private  mean_val
    ##    <chr>           <dbl>      <dbl>         <dbl>     <dbl>
    ##  1 WV        -0.000259    -0.00162   60124233233. -0.000942
    ##  2 FL         0.00409     -0.0813   147909622606. -0.0386  
    ##  3 IL        -0.000949    -0.000369 145768163696. -0.000659
    ##  4 MN        -0.00128      0.00520  216289833462.  0.00196 
    ##  5 MD        -0.00771     -0.0112    29514295869. -0.00944 
    ##  6 RI        -0.0355      -0.0126     3440607535. -0.0240  
    ##  7 ID        -0.000728     0.00803  203229630366.  0.00365 
    ##  8 NH        -0.000417    -0.00951   22084635128. -0.00496 
    ##  9 NC        -0.00252     -0.0362   134752067788. -0.0193  
    ## 10 VT        -0.00000831  -0.00375   23242008117. -0.00188 
    ## # … with 46 more rows
…
